{"count":811,"previous":null,"results":[{"url":"http:\/\/pokeapi.co\/api\/v2\/pokemon\/1\/","name":"bulbasaur"},{"url":"http:\/\/pokeapi.co\/api\/v2\/pokemon\/2\/","name":"ivysaur"}],"next":"http:\/\/pokeapi.co\/api\/v2\/pokemon\/?limit=2&offset=2"}
